%YAML 1.1
%TAG !u! tag:unity3d.com,2011:
--- !u!1045 &1
EditorBuildSettings:
  m_ObjectHideFlags: 0
  serializedVersion: 2
  m_Scenes:
  - enabled: 1
    path: Assets/Essentials/Scenes/GameScene.unity
    guid: 9ff529764b44bab468016fb3fb6ebfc7
  m_configObjects: {}
